/* XPM */
static char * bottom_left_active_xpm[] = {
"16 16 3 1",
"       c None",
"@      c #000000 s active_color_2",
"+      c #525FAB s active_color_2",
"@@+++           ",
"@@+++           ",
"@@+++           ",
"@@+++           ",
"@@+++           ",
"@@+++           ",
"@@+++           ",
"@@+++           ",
"@@+++           ",
"@@+++           ",
"@@++++          ",
"@@++++++++++++++",
" @@+++++++++++++",
" @@@++++++++++++",
"  @@@@@@@@@@@@@@",
"    @@@@@@@@@@@@"};
