/* XPM */
static char * maximize_active_xpm[] = {
"16 22 6 1",
" 	c None",
".	c #567B9C s inactive_mid_1",
"+	c #FFFFFF s inactive_hilight_1",
"@	c #4B58A2 s inactive_shadow_1",
"#	c #FFFFFF",
"$	c #000000 s active_color_2",
"$$$$$$$$$$$$$$$$",
"                ",
"                ",
"                ",
" .++++++++++++. ",
".+@@@@@@@@@@@@+.",
"+@@@@@@@@@@@@@@+",
"+@@@@@@@@@@@@@@+",
"+@@@.######.@@@+",
"+@@@########@@@+",
"+@@@##@@@@##@@@+",
"+@@@##@@@@##@@@+",
"+@@@##@@@@##@@@+",
"+@@@##@@@@##@@@+",
"+@@@########@@@+",
"+@@@.######.@@@+",
"+@@@@@@@@@@@@@@+",
"+@@@@@@@@@@@@@@+",
".+@@@@@@@@@@@@+.",
" .++++++++++++. ",
"                ",
"                "};
