/* XPM */
static char *dummy[]={
"28 22 110 2",
"#R c None",
"#A c #262b2f",
"#i c #272c30",
".# c #282d31",
".9 c #292e32",
".s c #2a2f33",
"## c #2e3338",
"#z c #2f3439",
"#a c #30353a",
"#M c #313639",
"#k c #31363b",
"#h c #31363c",
"#q c #32373c",
"#H c #33373d",
"#F c #34393e",
"#E c #35393d",
"#G c #353a3f",
"#I c #394146",
"#K c #41484b",
"#v c #43474e",
"#r c #44484f",
"#y c #454850",
"#l c #454951",
"#p c #464a52",
"#b c #474b52",
"#g c #484b53",
"#L c #494f53",
"#J c #52575b",
"#N c #565a5d",
".k c #575a63",
".q c #585b63",
".w c #585b64",
".H c #595c64",
".p c #5b5e66",
".l c #5c5f67",
"#O c #5d6164",
"#B c #5e6169",
"#C c #5f626a",
".R c #5f636a",
".E c #60636b",
".z c #61646b",
".A c #62656c",
"#D c #62676a",
".S c #63666d",
".D c #64676e",
".Q c #65676f",
".4 c #65686f",
".7 c #65696e",
".m c #666970",
".Z c #666a6f",
".N c #676971",
".3 c #676a71",
".o c #686c72",
".Y c #696d71",
"#P c #6c6f72",
".U c #6d6f76",
"#Q c #6d7174",
".V c #6f7377",
".M c #717579",
".L c #75797c",
".I c #777b7f",
".v c #797d81",
".B c #7a7e81",
".C c #7a7e82",
".x c #7c7e83",
"#j c #7c7f82",
".r c #7c8084",
".u c #7e8285",
"#. c #7f8386",
".j c #7f8387",
".e c #808281",
".G c #818387",
"#w c #8a8d8e",
".n c #8a8e90",
".i c #8c9092",
"#x c #8d9091",
".h c #8d9193",
"#s c #8e9192",
"#u c #919495",
"#m c #939697",
".f c #939799",
"#o c #969999",
"#f c #999b9c",
"#c c #9a9b9d",
".5 c #9c9e9f",
"#e c #9c9f9f",
".8 c #9fa3a4",
".2 c #a0a1a2",
".T c #a0a1a3",
".0 c #a1a3a3",
".6 c #a3a4a5",
".P c #a4a6a6",
".F c #a5a6a7",
".X c #a5a7a8",
".y c #aaabac",
".c c #aaacad",
"Qt c #acadb2",
".W c #acaeb1",
"#t c #adb0ad",
".b c #aeafb1",
".K c #b0b1b1",
"#n c #b1b4b1",
"#d c #b6b8b5",
".t c #b7b8b9",
".1 c #bbbcba",
".g c #bbbcbd",
".a c #bdbdbe",
".J c #bdc0c1",
".O c #bfc0be",
".d c #c5c5c5",
"Qt.#.a.b.b.b.b.b.b.b.b.b.b.b.b.b.b.b.b.c.c.c.c.c.c.d.#Qt",
".e.#.a.f.f.f.f.f.f.f.f.f.f.f.f.f.f.f.f.f.f.f.f.f.f.d.#.e",
".e.#.g.h.h.h.h.i.j.k.l.m.n.h.h.n.o.p.q.r.i.h.h.h.h.d.#.e",
".e.s.t.u.u.u.u.v.w.x.y.z.A.B.C.D.E.F.G.H.I.u.u.u.u.J.s.e",
".e.s.K.L.L.L.L.M.N.O.O.P.Q.R.z.S.T.O.O.U.V.L.L.L.L.W.s.e",
".e.s.X.Y.Y.Y.Y.Z.E.0.1.1.2.3.4.5.1.1.6.D.7.Y.Y.Y.Y.8.s.e",
".e.9#.#########a#b.A#c#d#d#e#f#d#d.5.4#g#h#########..9.e",
".e#i#j###########k#l.A#m#n#n#n#n#o.4#p#q###########j#i.e",
".e.9#.#############k#r.A#s#t#t#u.D#l#q#############..9.e",
".e#i#j###############k#v.E#w#x.A#y#q#####z#########j#i.e",
".e#A.L#################k#v#B#C#r#h################.L#A.e",
".e.s#D#E#################a#F#G#H#################E#D.s.e",
".e#I#J#K#E#####################################E#K#J#I.e",
".e#L#M#N#O#P#Q#Q#Q#Q#Q#Q#Q#Q#Q#Q#Q#Q#Q#Q#Q#Q#P#O#N#M#L.e",
".e.e#L#I.s#A#A#A#A#A#A#A#A#A#A#A#A#A#A#A#A#A#A.s#I#L.e.e",
"#R.e.e.e.e.e.e.e.e.e.e.e.e.e.e.e.e.e.e.e.e.e.e.e.e.e.e#R",
"#R#R#R#R#R#R#R#R#R#R#R#R#R#R#R#R#R#R#R#R#R#R#R#R#R#R#R#R",
"#R#R#R#R#R#R#R#R#R#R#R#R#R#R#R#R#R#R#R#R#R#R#R#R#R#R#R#R",
"#R#R#R#R#R#R#R#R#R#R#R#R#R#R#R#R#R#R#R#R#R#R#R#R#R#R#R#R",
"#R#R#R#R#R#R#R#R#R#R#R#R#R#R#R#R#R#R#R#R#R#R#R#R#R#R#R#R",
"#R#R#R#R#R#R#R#R#R#R#R#R#R#R#R#R#R#R#R#R#R#R#R#R#R#R#R#R",
"#R#R#R#R#R#R#R#R#R#R#R#R#R#R#R#R#R#R#R#R#R#R#R#R#R#R#R#R"};
