/* XPM */
static char *dummy[]={
"8 10 19 1",
"d c #09271d",
"o c #0a281e",
"f c #0e1316",
"c c #1a201e",
"n c #1b211f",
"a c #1d1b1c",
"h c #1e1c1d",
"q c #1e1e1e",
"l c #1f1d1e",
"k c #1f1f1f",
"i c #201e1f",
"# c #202020",
"b c #211f20",
"j c #4c4c4c",
"m c #4d4d4d",
"g c #4e4e4e",
"p c #4f4f4f",
". c #505050",
"e c #828685",
".#abcdef",
"g#hicdef",
"jkhlcdef",
"mkhinoef",
"gkalnoef",
"pqahcoef",
"gkhhcoef",
"m#lhnoef",
"j#ilnoef",
"m#llnoef"};
