/* XPM */
static char * close_inactive_xpm[] = {
"43 23 29 1",
" 	c None",
".	c #6B6B6B",
"+	c #E56F69",
"@	c #E16F69",
"#	c #DC716C",
"$	c #898989",
"%	c #D9746F",
"&	c #FFFFFF",
"*	c #D47772",
"=	c #CF7975",
"-	c #C87874",
";	c #982A2A",
">	c #9B2F2F",
",	c #9F3535",
"'	c #A53B3B",
")	c #AA4242",
"!	c #AF4B4B",
"~	c #E3E3E3",
"{	c #E4E4E4",
"]	c #FDFDFD",
"^	c #F8F8F8",
"/	c #F4F4F4",
"(	c #F0F0F0",
"_	c #ECECEC",
":	c #E8E8E8",
"<	c #E5E5E5",
"[	c #E6E6E6",
"}	c #E9E9E9",
"|	c #EBEBEB",
"...........................................",
".+++++++++++++++++++++++++++++++++++++++++.",
".+@@@@@@@@@@@@@@@@@@@@@@@@@@@@@@@@@@@@@@@+.",
".+##############$...###...$##############+.",
".+%%%%%%%%%%%%%%.&&&.%.&&&.%%%%%%%%%%%%%%+.",
".+***************.&&&.&&&.***************+.",
".+================.&&&&&.================+.",
".+-----------------.&&&.-----------------+.",
".+;;;;;;;;;;;;;;;;;.&&&.;;;;;;;;;;;;;;;;;+.",
".+>>>>>>>>>>>>>>>>.&&&&&.>>>>>>>>>>>>>>>>+.",
".+,,,,,,,,,,,,,,,.&&&.&&&.,,,,,,,,,,,,,,,+.",
".+''''''''''''''.&&&.'.&&&.''''''''''''''+.",
".+))))))))))))))$...)))...$))))))))))))))+.",
".+!!!!!!!!!!!!!!!!!!!!!!!!!!!!!!!!!!!!!!!+.",
".++++++++++++++++++++++++++++++++++++++++.~",
".........................................{{",
"&&&&&&&&&&&&&&&&&&&&&&&&&&&&&&&&&&&]^/(_:<<",
"[[[[[[[[[[[[[[[[[[[[[[[[[[[[[[[[[[[[[[[[[[[",
":::::::::::::::::::::::::::::::::::::::::::",
":::::::::::::::::::::::::::::::::::::::::::",
"}}}}}}}}}}}}}}}}}}}}}}}}}}}}}}}}}}}}}}}}}}}",
"|||||||||||||||||||||||||||||||||||||||||||",
"|||||||||||||||||||||||||||||||||||||||||||"};
