/* XPM */
static char * close_pressed_xpm[] = {
"43 23 28 1",
" 	c None",
".	c #7A7A7A",
"+	c #FF7F78",
"@	c #FA817C",
"#	c #9D9D9D",
"$	c #F7857F",
"%	c #FFFFFF",
"&	c #F18882",
"*	c #EC8A86",
"=	c #E38985",
"-	c #AD3131",
";	c #B13636",
">	c #B63D3D",
",	c #BC4343",
"'	c #C24C4C",
")	c #C75656",
"!	c #787878",
"~	c #FDFDFD",
"{	c #FAFAFA",
"]	c #F8F8F8",
"^	c #F4F4F4",
"/	c #F1F1F1",
"(	c #EDEDED",
"_	c #EAEAEA",
":	c #E6E6E6",
"<	c #E8E8E8",
"[	c #E9E9E9",
"}	c #EBEBEB",
"...........................................",
".+++++++++++++++++++++++++++++++++++++++++.",
".+++++++++++++++++++++++++++++++++++++++++.",
".+@@@@@@@@@@@@@@#...@@@...#@@@@@@@@@@@@@@+.",
".+$$$$$$$$$$$$$$.%%%.$.%%%.$$$$$$$$$$$$$$+.",
".+&&&&&&&&&&&&&&&.%%%.%%%.&&&&&&&&&&&&&&&+.",
".+****************.%%%%%.****************+.",
".+=================.%%%.=================+.",
".+-----------------.%%%.-----------------+.",
".+;;;;;;;;;;;;;;;;.%%%%%.;;;;;;;;;;;;;;;;+.",
".+>>>>>>>>>>>>>>>.%%%.%%%.>>>>>>>>>>>>>>>+.",
".+,,,,,,,,,,,,,,.%%%.,.%%%.,,,,,,,,,,,,,,+.",
".+''''''''''''''#...'''...#''''''''''''''+.",
".+)))))))))))))))))))))))))))))))))))))))+.",
".++++++++++++++++++++++++++++++++++++++++.%",
"!!!!!!!!!!!!!!!!!!!!!!!!!!!!!!!!!!!!!!!!!~~",
"%%%%%%%%%%%%%%%%%%%%%%%%%%%%%%%%%%%~{]^/(__",
":::::::::::::::::::::::::::::::::::::::::::",
"<<<<<<<<<<<<<<<<<<<<<<<<<<<<<<<<<<<<<<<<<<<",
"<<<<<<<<<<<<<<<<<<<<<<<<<<<<<<<<<<<<<<<<<<<",
"[[[[[[[[[[[[[[[[[[[[[[[[[[[[[[[[[[[[[[[[[[[",
"}}}}}}}}}}}}}}}}}}}}}}}}}}}}}}}}}}}}}}}}}}}",
"}}}}}}}}}}}}}}}}}}}}}}}}}}}}}}}}}}}}}}}}}}}"};
