/* XPM */
static char * menu_active_xpm[] = {
"16 16 2 1",
" 	c None",
".	c #B0B0B0 s active_shadow_2",
"................",
"................",
"................",
"................",
"................",
"................",
"................",
"................",
"................",
"................",
"................",
"................",
"................",
"................",
"................",
"................"};
