/* XPM */
static char * title_inactive_xpm[] = {
"2 22 4 1",
" 	c None",
"+	c #FFFFFF s inactive_hilight_1",
"@	c #4C7BA6 s active_color_2",
"$	c #000000 s active_color_2",
"$$",
"$$",
"@@",
"@@",
"@@",
"@@",
"@@",
"@@",
"@@",
"@@",
"@@",
"@@",
"@@",
"@@",
"@@",
"@@",
"@@",
"@@",
"@@",
"@@",
"@@",
"@@"};
