/* XPM */
static char * top_right_active_xpm[] = {
"7 22 3 1",
"       c None",
"#      c #4C7BA6 s active_color_2",
"$      c #000000 s active_color_2",
"$$$    ",
"#$$$$  ",
"###$$$ ",
"####$$ ",
"#####$$",
"#####$$",
"#####$$",
"#####$$",
"#####$$",
"#####$$",
"#####$$",
"#####$$",
"#####$$",
"#####$$",
"#####$$",
"#####$$",
"#####$$",
"#####$$",
"#####$$",
"#####$$",
"#####$$",
"#####$$"};
