/* XPM */
static char * close_active_xpm[] = {
"16 22 8 1",
" 	c #4C7BA6 s active_color_2",
"@ 	c #000000 s active_color_2",
".	c #567B9C s active_color_2",
"+	c #FFFFFF s inactive_hilight_1",
"$	c #ED2323",
"=	c #FFA0A0",
"-	c #911515",
"#	c #FFFFFF",
"@@@@@@@@@@@@@@@@",
"@@@@@@@@@@@@@@@@",
"@@@@@@@@@@@@@@@@",
"                ",
" .++++++++++++. ",
".+------------+.",
"+--------------+",
"+--------------+",
"+---=#----#=---+",
"+---###--###---+",
"+----######----+",
"+-----####-----+",
"+-----####-----+",
"+----######----+",
"+---###--###---+",
"+---=#----#=---+",
"+--------------+",
"+--------------+",
".+------------+.",
" .++++++++++++. ",
"                ",
"                "};
