/* XPM */
static char * stick_active_xpm[] = {
"16 22 7 1",
" 	c None",
".	c #567B9C s inactive_mid_1",
"+	c #FFFFFF s inactive_hilight_1",
"@	c #4B58A2 s inactive_shadow_1",
"#	c #949595 s inactive_color_1",
"$	c #FFFFFF",
"*      c #000000 s active_color_2",
"****************",
"                ",
"                ",
"                ",
" .++++++++++++. ",
".+@@@@@@@@@@@@+.",
"+@@@@@@@@@@@@@@+",
"+@@@@@@@@@@@@@@+",
"+@@@@#$$$$#@@@@+",
"+@@@#$$$$$$#@@@+",
"+@@@$$+@@+$$@@@+",
"+@@@$$@@@@$$@@@+",
"+@@@$$@@@@$$@@@+",
"+@@@$$+@@+$$@@@+",
"+@@@#$$$$$$#@@@+",
"+@@@@#$$$$#@@@@+",
"+@@@@@@@@@@@@@@+",
"+@@@@@@@@@@@@@@+",
".+@@@@@@@@@@@@+.",
" .++++++++++++. ",
"                ",
"                "};
